^C:\USERS\USER\SOURCE\REPOS\SKILLBOX_13\HOMEWORK13\HOMEWORK13\DEBUG\HELPERS.OBJ|C:\USERS\USER\SOURCE\REPOS\SKILLBOX_13\HOMEWORK13\HOMEWORK13\DEBUG\MAIN.OBJ
C:\USERS\USER\SOURCE\REPOS\SKILLBOX_13\HOMEWORK13\DEBUG\HOMEWORK13.EXE
C:\USERS\USER\SOURCE\REPOS\SKILLBOX_13\HOMEWORK13\DEBUG\HOMEWORK13.ILK
C:\USERS\USER\SOURCE\REPOS\SKILLBOX_13\HOMEWORK13\DEBUG\HOMEWORK13.PDB
